6: duckdb
…
Reading in as a normal tibble, and then converting to a spatial object:

ca_fee <- pad |> 
  filter(State_Nm == "CA", FeatClass == "Fee") |> 
  collect()

ca_fee |> st_as_sf(sf_column_name = "geometry", crs = pad_meta$wkt)

Simple feature collection with 17873 features and 34 fields
Geometry type: GEOMETRY
Dimension:     XY
Bounding box:  xmin: -2349024 ymin: 1242361 xmax: -1646723 ymax: 2452203
Projected CRS: USA_Contiguous_Albers_Equal_Area_Conic_USGS_version
# A tibble: 17,873 × 35
   FeatClass Category Own_Type Own_Name Loc_Own     Mang_Type Mang_Name Loc_Mang
 * <chr>     <chr>    <chr>    <chr>    <chr>       <chr>     <chr>     <chr>   
 1 Fee       Fee      LOC      CITY     San Diego,… LOC       CITY      San Die…
 2 Fee       Fee      LOC      CITY     San Diego,… LOC       CITY      San Die…
 3 Fee       Fee      STAT     OTHS     University… STAT      OTHS      Univers…
 4 Fee       Fee      STAT     OTHS     University… STAT      OTHS      Univers…
 5 Fee       Fee      LOC      CITY     San Diego,… LOC       CITY      San Die…
 6 Fee       Fee      LOC      CITY     San Diego,… LOC       CITY      San Die…
 7 Fee       Fee      LOC      CITY     City of Sa… LOC       CITY      City of…
 8 Fee       Fee      LOC      CITY     San Diego,… LOC       CITY      San Die…
 9 Fee       Fee      LOC      CITY     San Diego,… LOC       CITY      San Die…
10 Fee       Fee      LOC      CITY     San Diego,… LOC       CITY      San Die…
# ℹ 17,863 more rows
# ℹ 27 more variables: Des_Tp <chr>, Loc_Ds <chr>, Unit_Nm <chr>, Loc_Nm <chr>,
#   State_Nm <chr>, Agg_Src <chr>, GIS_Src <chr>, Src_Date <chr>,
#   GIS_Acres <int>, Source_PAID <chr>, WDPA_Cd <int>, Pub_Access <chr>,
#   Access_Src <chr>, Access_Dt <chr>, GAP_Sts <chr>, GAPCdSrc <chr>,
#   GAPCdDt <chr>, IUCN_Cat <chr>, IUCNCtSrc <chr>, IUCNCtDt <chr>,
#   Date_Est <chr>, Comments <chr>, EsmtHldr <chr>, EHoldTyp <chr>, …
…
